Strava Data
…
  act_vec %>%
    bind_rows() %>%
    mutate(
      start_date = ymd_hms(start_date),
      active_user_id = active_user_id)
}

The resulting data frame consists of one row per activity:

## # A tibble: 695 x 60
##    resource_state name  distance moving_time elapsed_time total_elevation~ type 
##             <int> <chr>    <dbl>       <int>        <int>            <dbl> <chr>
##  1              2 "Bal~   22693.        4740         8341             544  Ride 
##  2              2 "Sup~   49032.       10076        24068            1090  Ride 
##  3              2 "Vol~    8503.        1408        15990             104  Ride 
##  4              2 "Pla~   32375.        5042         5242             408  Ride 
##  5              2 "Pla~   34140.        5898         5898             606  Ride 
##  6              2 "Slo~    6970.        3247         3255             109. Run  
##  7              2 "Rai~    6762.        2699         2819             105. Run  
##  8              2 "Lon~   32930.        5295         5669             500  Ride 
##  9              2 "Tex~   13453.        4291        11609             404  Ride 
## 10              2 "Mit~    5798.        1263         1674               6  Ride 
## # ... with 685 more rows, and 53 more variables: sport_type <chr>,
## #   workout_type <int>, id <dbl>, start_date <dttm>, start_date_local <chr>,
## #   timezone <chr>, utc_offset <dbl>, location_city <lgl>,
## #   location_state <lgl>, location_country <chr>, achievement_count <int>,
## #   kudos_count <int>, comment_count <int>, athlete_count <int>,
## #   photo_count <int>, trainer <lgl>, commute <lgl>, manual <lgl>,
## #   private <lgl>, visibility <chr>, flagged <lgl>, gear_id <chr>, ...
…
  open_dataset(paths_meas, format = "arrow", schema = act_col_types) %>%
    to_duckdb() %>%
    select(id, lat, lng) %>%
    filter(!is.na(lat) & !is.na(lng)) %>%
    collect()
}

## # A tibble: 2,379,259 x 3
##    id           lat   lng
##    <chr>      <dbl> <dbl>
##  1 7460670182  47.8  6.83
##  2 7460670182  47.8  6.83
##  3 7460670182  47.8  6.83
##  4 7460670182  47.8  6.83
##  5 7460670182  47.8  6.83
##  6 7460670182  47.8  6.83
##  7 7460670182  47.8  6.83
##  8 7460670182  47.8  6.83
##  9 7460670182  47.8  6.83
## 10 7460670182  47.8  6.83
## # ... with 2,379,249 more rows
…
