Strava Data
…
  act_vec %>%
    bind_rows() %>%
    mutate(
      start_date = ymd_hms(start_date),
      active_user_id = active_user_id)
}

The resulting data frame consists of one row per activity:

# A tibble: 661 x 59
   resource_state name               distance moving_time elapsed_time
            <int> <chr>                 <dbl>       <int>        <int>
 1              2 "Easter \U0001f42~    4226.        3117         3872
 2              2 "Open Sales"          6792.        2643         2643
 3              2 "Snowy <U+2744><U+FE0F> April "      7833.        2971         2971
 4              2 "SodGIT"              7607.        2766         2766
 5              2 "Sun <U+2600><U+FE0F> Run"           8682.        3480         3495
 6              2 "Sodge Ride"         42832.        7031        12807
 7              2 "Sodge Run"           7522.        2903         2908
 8              2 "Fahrt am Nachmit~       0          914          914
 9              2 "FSV Run"             6623.        2617         2726
10              2 "March Madness "      9341.        3845         3871
# ... with 651 more rows, and 54 more variables:
#   total_elevation_gain <dbl>, type <chr>, id <dbl>,
#   start_date <dttm>, start_date_local <chr>, timezone <chr>,
#   utc_offset <dbl>, location_city <lgl>, location_state <lgl>,
#   location_country <chr>, achievement_count <int>,
#   kudos_count <int>, comment_count <int>, athlete_count <int>,
#   photo_count <int>, trainer <lgl>, commute <lgl>, ...
…
  open_dataset(paths_meas, format = "arrow", schema = act_col_types) %>%
    to_duckdb() %>%
    select(id, lat, lng) %>%
    filter(!is.na(lat) & !is.na(lng)) %>%
    collect()
}

# A tibble: 2,281,866 x 3
   id           lat   lng
   <chr>      <dbl> <dbl>
 1 6997027972  47.8  9.03
 2 6997027972  47.8  9.03
 3 6997027972  47.8  9.03
 4 6997027972  47.8  9.03
 5 6997027972  47.8  9.03
 6 6997027972  47.8  9.03
 7 6997027972  47.8  9.03
 8 6997027972  47.8  9.03
 9 6997027972  47.8  9.03
10 6997027972  47.8  9.03
# ... with 2,281,856 more rows
…
